%YAML 1.1
%TAG !u! tag:unity3d.com,2011:
--- !u!21 &2100000
Material:
  serializedVersion: 6
  m_ObjectHideFlags: 0
  m_CorrespondingSourceObject: {fileID: 0}
  m_PrefabInstance: {fileID: 0}
  m_PrefabAsset: {fileID: 0}
  m_Name: SpriteAlpha 2
  m_Shader: {fileID: 4800000, guid: af91525aab149004a9f6d38a264f9bbd, type: 3}
  m_ShaderKeywords: ETC1_EXTERNAL_ALPHA _ENABLED_ON
  m_LightmapFlags: 4
  m_EnableInstancingVariants: 0
  m_DoubleSidedGI: 0
  m_CustomRenderQueue: -1
  stringTagMap: {}
  disabledShaderPasses: []
  m_SavedProperties:
    serializedVersion: 3
    m_TexEnvs:
    - _AlphaTex:
        m_Texture: {fileID: 0}
        m_Scale: {x: 1, y: 1}
        m_Offset: {x: 0, y: 0}
    - _MainTex:
        m_Texture: {fileID: 0}
        m_Scale: {x: 1, y: 1}
        m_Offset: {x: 0, y: 0}
    m_Floats:
    - PixelSnap: 0
    - Vector1_6DA4D0E0: 0.2
    - Vector1_9A2D4E64: 0.25
    - _ClampBorder: 0.01
    - _ClampHoriz: 0
    - _ClampVert: 0
    - _ColorMask: 15
    - _EnableExternalAlpha: 0
    - _Enabled: 1
    - _IsThisText: 1
    - _PixelSnap: 0
    - _ScreenSpaceUI: 0
    - _Stencil: 0
    - _StencilComp: 8
    - _StencilOp: 0
    - _StencilReadMask: 255
    - _StencilWriteMask: 255
    - _UseAlphaChannel: 0
    - _fogIntensity: 0
    - _fuzzi: 0.32
    - _range: 0.4
    m_Colors:
    - Color_36EBD532: {r: 0.003921569, g: 0.039215688, b: 0.078431375, a: 1}
    - _Color: {r: 0, g: 0, b: 0, a: 1}
    - _Color2: {r: 0, g: 0, b: 0, a: 0}
    - _Flip: {r: 1, g: 1, b: 1, a: 1}
    - _RendererColor: {r: 1, g: 1, b: 1, a: 1}
